<?xml version="1.0" encoding="utf-8"?>
<!-- Generator: Adobe Illustrator 16.0.3, SVG Export Plug-In . SVG Version: 6.00 Build 0)  -->
<!DOCTYPE svg PUBLIC "-//W3C//DTD SVG 1.1//EN" "http://www.w3.org/Graphics/SVG/1.1/DTD/svg11.dtd">
<svg version="1.1" id="Livello_1" xmlns="http://www.w3.org/2000/svg" xmlns:xlink="http://www.w3.org/1999/xlink" x="0px" y="0px"
	 width="42px" height="42px" viewBox="0 0 42 42" enable-background="new 0 0 42 42" xml:space="preserve">
<g>
	<path fill-rule="evenodd" clip-rule="evenodd" d="M33.211,9.525c0.095-0.322,0.116-0.665,0.187-0.995
		c0.143-0.663-0.02-1.222-0.446-1.757c-0.321-0.403-0.82-0.366-1.192-0.616c-0.017-0.011-0.058,0.016-0.088,0.018
		c-0.109,0.005-0.218,0.005-0.328,0.013c-0.095,0.007-0.194,0.006-0.285,0.033c-0.236,0.071-0.47,0.223-0.702,0.218
		c-0.223-0.006-0.314,0.098-0.452,0.213c-0.195,0.166-0.415,0.305-0.633,0.44c-0.122,0.075-0.322,0.088-0.383,0.19
		c-0.131,0.22-0.315,0.212-0.517,0.237c-0.169,0.021-0.329,0.097-0.495,0.14c-0.311,0.081-0.62,0.163-0.934,0.236
		c-0.263,0.062-0.526-0.203-0.794-0.005c-0.014,0.011-0.055-0.025-0.077-0.019c-0.323,0.082-0.666,0.122-0.958,0.266
		c-0.261,0.129-0.45,0.391-0.693,0.563c-0.571,0.405-1.193,0.743-1.623,1.32c-0.246,0.332-0.479,0.653-0.941,0.743
		c-0.484,0.094-0.949,0.288-1.431,0.409c-0.205,0.051-0.431,0.014-0.642,0.051c-0.05,0.01-0.13,0.186-0.104,0.23
		c0.087,0.149,0.198,0.297,0.334,0.399c0.157,0.12,0.041,0.16-0.049,0.247c-0.188,0.186-0.201,0.428-0.581,0.564h0
		c0.373-0.107,0.391-0.314,0.613-0.512c-0.062,0.223-0.074,0.388-0.137,0.533c-0.063,0.146-0.153,0.28-0.186,0.447
		c0.044-0.055,0.092-0.106,0.135-0.162c0.025,0.022,0.054,0.044,0.08,0.066c-0.177,0.218-0.354,0.437-0.53,0.655
		c-0.027-0.021-0.055-0.039-0.082-0.059c0.13-0.161-0.242-0.492,0.171-0.526c0-0.155,0.001-0.291,0-0.426
		c-0.001,0-0.001,0.002-0.003,0.003c0,0,0.003-0.005,0.003-0.006c-0.031,0.015-0.078,0.021-0.09,0.044
		c-0.235,0.449-0.429,0.912-0.366,1.434c0.053,0.434-0.093,0.798-0.345,1.138c-0.077,0.105-0.121,0.234-0.192,0.378
		c0.066-0.016,0.094-0.022,0.154-0.036c-0.256,0.601-0.453,1.194-0.257,1.761c-0.386,0.57-0.75,1.11-1.114,1.648
		c0.026,0.022,0.052,0.046,0.078,0.069c0.142-0.027,0.283-0.056,0.48-0.095c-0.079,0.095-0.114,0.145-0.156,0.188
		c-0.168,0.17-0.238,0.344,0.007,0.5c0.217,0.14,0.16,0.3,0.067,0.479c-0.464,0.907-0.931,1.814-1.388,2.726
		c-0.282,0.563-0.591,1.124-1.159,1.431c-1.338,0.723-2.175,1.857-2.819,3.19c-0.474,0.98-1.008,1.933-1.522,2.894
		c-0.084,0.157-0.18,0.225-0.374,0.08c0,0-0.443,0.019-0.599,0.477s-0.045,3.054,0.158,3.525c0.203,0.471,0.523,0.345,0.752-0.203
		c0.261-0.619,0.399-2.252,0.568-2.677c0.109-0.272,0.16-0.582,0.321-0.817c0.311-0.454,0.681-0.867,1.028-1.298
		c0.116-0.145,0.245-0.278,0.355-0.426c0.327-0.44,0.643-0.889,0.974-1.326c0.275-0.365,0.555-0.73,0.854-1.077
		c0.308-0.355,0.633-0.699,0.969-1.029c0.361-0.354,0.743-0.688,1.12-1.027c0.458-0.412,0.919-0.822,1.38-1.231
		c0.411-0.364,0.84-0.712,1.235-1.095c0.391-0.377,0.736-0.802,1.125-1.183c0.439-0.433,0.903-0.839,1.388-1.286
		c0.063,0.389,0.121,0.741,0.18,1.094c0.033,0.193,0.085,0.387,0.099,0.581c0.027,0.388,0.035,0.777,0.046,1.166
		c0.014,0.444,0.052,0.891,0.028,1.333c-0.03,0.544-0.117,1.086-0.175,1.629c-0.044,0.415-0.077,0.831-0.121,1.246
		c-0.011,0.111-0.029,0.225-0.067,0.328c-0.096,0.263,0.021,0.537-0.181,0.826c-0.23,0.332-0.313,0.796-0.363,1.215
		c-0.121,1-0.157,2.01-0.29,3.006c-0.041,0.308-0.249,0.617-0.449,0.87c-0.155,0.197-0.106,0.113-0.339,0.273
		c0,0-0.359,0.123-0.363,0.54c-0.003,0.418,0.398,1.27,0.532,1.707c0.247,0.808,0.117,0.633,0.418,1.471
		c0.097,0.267,0.155,0.59,0.434,0.551c0.103-0.014,0.217-0.116,0.277-0.21c0.081-0.129,0.448-2.398,0.451-2.461
		c0.054-1.138,0.378-2.218,0.722-3.291c0.41-1.282,0.851-2.552,0.99-3.907c0.111-1.077,0.342-2.135,0.804-3.129
		c0.63-1.354,1.104-2.763,1.463-4.211c0.081-0.33,0.125-0.67,0.188-1.006c-0.057,0.604-0.131,1.203,0.636,1.395
		c-0.02,0.161-0.059,0.296-0.047,0.426c0.024,0.254,0.082,0.505,0.115,0.76c0.025,0.196-0.045,0.291-0.268,0.244
		c-0.069-0.015-0.155,0.051-0.167,0.055c0.154,0.205,0.284,0.362,0.392,0.532c0.039,0.062-0.003,0.184,0.041,0.229
		c0.125,0.129,0.724,0.063,0.828-0.091c0.159-0.233,0.306-0.474,0.438-0.724c0.049-0.094,0.071-0.225,0.054-0.329
		c-0.073-0.433-0.265-0.811-0.057-1.313c0.183-0.44,0.146-0.988,0.355-1.459c0.137-0.304,0.173-0.719,0.401-0.9
		c0.48-0.382,0.664-0.853,0.67-1.413c0.005-0.473,0.117-0.856,0.549-1.103c0.097-0.056,0.168-0.152,0.259-0.22
		c0.161-0.119,0.209-0.263,0.16-0.462c-0.073-0.294-0.133-0.594-0.176-0.895c-0.014-0.091,0.048-0.193,0.075-0.29
		c0.035-0.039,0.07-0.077,0.105-0.115c-0.044,0.501,0.132,0.45,0.342,0.284c0.055-0.043,0.095-0.119,0.116-0.188
		c0.075-0.243,0.112-0.502,0.211-0.734c0.189-0.442,0.412-0.87,0.623-1.304c0.014-0.031,0.045-0.053,0.066-0.08
		c0.069-0.098,0.159-0.187,0.204-0.295c0.109-0.268,0.185-0.551,0.301-0.815c0.036-0.085,0.157-0.132,0.229-0.188
		c0.014-0.068,0.014-0.147,0.044-0.213C32.978,10.004,33.136,9.777,33.211,9.525z M26.871,18.635
		c-0.027-0.056-0.055-0.111-0.083-0.168c-0.107,0.141-0.216,0.28-0.324,0.42c-0.022-0.014-0.044-0.027-0.067-0.04
		c0.042-0.382,0.086-0.764,0.129-1.146c0.082,0.435,0.408,0.361,0.697,0.383C26.762,18.081,27.053,18.495,26.871,18.635z"/>
	<polygon fill-rule="evenodd" clip-rule="evenodd" points="19.451,12.682 19.45,12.679 19.451,12.682 	"/>
</g>
</svg>
