<?xml version="1.0" encoding="utf-8"?>
<!-- Generator: Adobe Illustrator 16.0.3, SVG Export Plug-In . SVG Version: 6.00 Build 0)  -->
<!DOCTYPE svg PUBLIC "-//W3C//DTD SVG 1.1//EN" "http://www.w3.org/Graphics/SVG/1.1/DTD/svg11.dtd">
<svg version="1.1" id="Livello_1" xmlns="http://www.w3.org/2000/svg" xmlns:xlink="http://www.w3.org/1999/xlink" x="0px" y="0px"
	 width="42px" height="42px" viewBox="0 0 42 42" enable-background="new 0 0 42 42" xml:space="preserve">
<g>
	<path d="M2.788,12.503c-0.011-0.135-0.029-0.276-0.029-0.276S2.759,12.337,2.788,12.503z"/>
	<path d="M41.217,33.371l-0.414-0.104L40.415,33.5l-0.673,0.362l-0.906-0.233l-1.889-0.751l-1.786-1.475l-2.407-2.872l-2.925-3.935
		l1.138-0.362l1.657-0.595l1.89-0.233l0.725,0.414l0.983,0.182l0.414-0.233l0.776-1.579c0,0,1.19-1.139,1.268-1.189
		c0.078-0.052,0.699-1.295,0.699-1.295s-0.181-0.75-0.181-0.828c0-0.077-0.336-0.646-0.336-0.646L38.5,18.257l-0.129,0.18
		l0.026,0.415l-0.673,1.138c0,0-1.916,0.959-2.019,1.011c-0.104,0.051-0.492,0.181-0.492,0.181l-1.423-0.077l-2.924,0.595
		l-3.727,0.155l-2.64-0.181l-0.829,0.13l-1.449,0.62l-1.553,2.925l-1.527,3.027l-0.666,1.113l-1.146-0.467l-0.673-0.827l-0.414-1.14
		l-0.415-0.905l-1.165-0.827l3.494-2.77l0.027-0.414l-0.622-3.209l-0.077-1.165l0.991-2.95L18.83,14.4l0.161-0.177l0.099-0.678
		v-0.491l0.414-0.233l-0.129-0.337l0.44-0.466v-0.466l0.415-1.062l0.439-0.206c0,0,0.337-0.725,0.31-0.803
		c-0.025-0.077-0.103-0.388-0.103-0.388L20.59,8.577l-0.776,0.854l-1.526,3.027l-0.234,0.439h-0.31l-0.492,0.48v0.943l-0.362,0.311
		l-0.389-0.336l-0.336-0.906c0,0-0.596-0.026-0.673,0c-0.078,0.026-0.751,0.077-0.854,0.104c-0.103,0.025-0.025,0.62-0.025,0.698
		s0.724,1.164,0.802,1.242c0.078,0.077,0.491,0.129,0.491,0.129l0.363,0.699l-1.812,3.132l-1.268,1.501l-0.362,0.284
		c0,0-0.492,0.466-0.543,0.596c-0.052,0.129-0.078,0.491-0.078,0.491l-0.285,0.285l-0.052-0.363l0.13-0.543l0.698-0.621l0.13-0.596
		l-0.673-0.44c0,0-0.336-0.284-0.414-0.361c-0.078-0.078-0.336-0.232-0.336-0.232l-0.13-0.544h-0.88l-0.233-0.388l-1.268-0.363
		l-0.13-0.259c0,0-1.112-1.268-1.345-1.76c-0.233-0.491-0.699-0.621-0.647-1.087c0.051-0.466-0.336-0.751-0.595-1.164
		c-0.259-0.414-0.207,0.077,0.026,0.388s0.155,0.439-0.052,0.362c-0.207-0.077-0.803-0.362-0.983-0.388
		c-0.181-0.026-0.259-0.44-0.492-0.906c-0.232-0.466-0.207-0.104-0.207-0.414s-0.31-0.466-0.31-0.285
		c0,0.182-0.052,0.622-0.182,0.467c-0.129-0.156-0.492-0.233-0.595-0.207c-0.103,0.025,0.104,0.569,0.129,0.827
		c0.026,0.26-0.181,0-0.466-0.465c-0.153-0.251-0.224-0.517-0.256-0.707c0.01,0.139,0.011,0.268-0.029,0.215
		c-0.077-0.104-0.388-0.259-0.362,0.181c0.025,0.44,0.025,1.295,0.025,1.295s0.129,0.724,0.285,1.501
		c0.155,0.776-0.492,0.75-0.543,0.854s0.181,0.854,0.337,1.095c0.155,0.24,0.336,0.69,0.854,1.545
		c0.517,0.854,0.362,0.88,0.414,1.294c0.052,0.415,0.207,0.389,0.673,0.854c0.466,0.466,0.932,1.526,0.932,1.526l1.268,1.113
		l1.734,0.776l0.284,0.181l-0.336,0.597l-0.388,1.475c0,0,0.155,0.828,0.155,0.957c0,0.13,1.449,3.105,1.449,3.105l0.803,0.545
		l0.414,0.62l1.087,1.009l3.753,2.977l3.778,1.319l2.044,0.622h1.553l0.621-0.207c0,0-0.026-0.932-0.026-1.061
		c0-0.13,0.052-1.295,0.052-1.295l0.208-1.889l0.569-0.933l1.527-1.811l2.536-2.926l0.518,0.907l1.889,1.862l2.277,1.604
		l0.725,0.596l0.854,0.673l-0.129,0.906l0.621,0.905L35.73,35.7l0.673-0.208l0.647-0.311l0.725-0.285l1.604,0.285l0.518,0.182
		l0.517-0.389l0.414-0.388l0.388-0.415l0.285-0.465L41.217,33.371z M15,21.827l1.009-1.216l0.466-1.113c0,0-0.052,1.32,0,1.398
		c0.052,0.077,0.44,0.724,0.44,0.724s-0.207,0.621-0.285,0.674c-0.078,0.052-2.718,0.775-2.718,0.775
		C14.017,23.044,15,21.827,15,21.827z M25.844,25.684c-0.052,0.078-1.863,1.682-1.863,1.682l0.465-1.553l0.673-0.905
		c0.156,0.025,1.217-0.285,1.217,0S25.896,25.605,25.844,25.684z"/>
</g>
</svg>
