<?xml version="1.0" encoding="utf-8"?>
<!-- Generator: Adobe Illustrator 16.0.3, SVG Export Plug-In . SVG Version: 6.00 Build 0)  -->
<!DOCTYPE svg PUBLIC "-//W3C//DTD SVG 1.1//EN" "http://www.w3.org/Graphics/SVG/1.1/DTD/svg11.dtd">
<svg version="1.1" id="Livello_1" xmlns="http://www.w3.org/2000/svg" xmlns:xlink="http://www.w3.org/1999/xlink" x="0px" y="0px"
	 width="42px" height="42px" viewBox="0 0 42 42" enable-background="new 0 0 42 42" xml:space="preserve">
<path d="M1.472,31.379l0.681,1.02l1.156,0.545l0.476-0.783l0.817-1.599l1.564-1.497L8.344,27.5l4.014-2.721l2.858-1.905l2.245-1.021
	l1.293,0.953l0.884,1.157l0.816,2.109l0.817,2.79l-0.272,1.021l0.272,4.15v3.266l-0.34,2.446l1.155,0.479l0.273-0.479
	c0,0-0.205-1.426,0-1.63c0.204-0.204,0.815-3.946,0.815-3.946s0.613-2.177,0.613-2.381s-0.477-3.13-0.477-3.13l0.136-3.266
	l0.341-4.354v-0.816l-0.545-0.681l0.545-1.36l1.225-1.77l0.612-0.748l1.292-2.518c0,0,1.225-1.361,1.43-1.225
	c0.204,0.136,1.633,0.816,1.973,0.816s2.926,0.749,3.267,0.749c0.34,0,4.83-0.408,4.83-0.408l0.748,0.68l0.409,0.068l0.34,0.681
	v0.612l0.612,0.272v-1.089v-1.021l-0.952-0.885l-0.953-0.486h-1.497l-2.313-0.399h-2.178c0,0-1.089-0.612-1.36-0.68
	c-0.272-0.068-2.722-0.884-2.722-0.884l-1.905-0.953l1.251-0.544l0.858-1.973l0.067-1.837L27.8,3.619h-2.038l-0.748,0.476
	l-0.341,1.088l-0.476,0.409l-0.272,0.34l0.136,0.817l0.137,0.544l-0.408,0.612l-2.042-0.476l-1.633-0.204l-1.769-0.272L17.393,6
	l-1.225,0.136l-0.204,1.156l-0.638,0.941l-0.436,1.361l0.218,0.203c0,0,0.296-0.35,0.335-0.475c0.038-0.125,0.467-0.902,0.467-0.902
	l-0.086,0.918l0.086,0.809l0.326,0.148V9.199l0.226-0.436c0,0,0.008,0.459-0.008,0.498s0.016,1.113,0.016,1.113h0.256
	c0,0,0.188-0.179,0.18-0.304s0.109-1.517,0.109-1.517l0.225,0.303l0.032,1.073l0.069,0.233c0,0,0.218,0,0.233-0.085
	s0.155-1.408,0.155-1.408l0.592,0.801l0.404,0.132L18.407,8.6l0.77,0.296l1.027,0.062l0.295,0.257l0.148,0.552l-0.669,2.101
	l-0.335,1.268l-0.459,0.926l-1.479,2.148l-0.534-0.243l-0.121,1.116l-0.995,0.897l-1.819,1.456l-0.971,1.262l-0.728,0.776
	L8.85,23.925l-2.28,2.232l-1.917,2.402l-1.141,1.067l-1.164,0.534l-0.876,0.922V31.379z"/>
</svg>
